Match Day ID,Match Day,Home Team,Away Team,Home Team HT Goals,Away Team HT Goals,Home Team Full Time Goals,Away Team Full Time Goals,Result
347923,1,ARS,CRY,2,0,3,1,H
347923,1,BHA,NOT,0,0,1,0,H
347923,1,BOU,CHE,0,1,0,2,A
347923,1,FUL,WHU,1,1,2,2,D
347923,1,LIV,BUR,2,2,4,2,H
347923,1,MUN,BRE,0,0,0,0,D
347923,1,NEW,EVE,1,0,2,1,H
347923,1,SHU,LUT,0,0,1,0,H
347923,1,TOT,AST,1,0,1,0,H
347923,1,WOL,MCI,0,1,0,2,A
347924,2,AST,WHU,1,0,2,2,D
347924,2,BOU,EVE,1,1,2,4,A
347924,2,BUR,WOL,2,0,2,1,H
347924,2,CHE,MCI,1,2,3,3,D
347924,2,CRY,BHA,0,1,1,2,A
347924,2,FUL,ARS,1,1,1,1,D
347924,2,LIV,MUN,0,1,1,1,D
347924,2,NEW,SHU,0,0,0,1,A
347924,2,NOT,LUT,3,0,3,0,H
347924,2,TOT,BRE,3,0,4,0,H
347925,3,ARS,AST,0,1,2,1,H
347925,3,BHA,FUL,0,0,0,0,D
347925,3,BRE,WHU,1,1,2,1,H
347925,3,CHE,BUR,0,0,1,0,H
347925,3,CRY,LUT,1,0,3,1,H
347925,3,MCI,BOU,0,1,1,1,D
347925,3,MUN,WOL,0,0,3,0,H
347925,3,NEW,NOT,3,0,4,0,H
347925,3,SHU,EVE,0,1,0,2,A
347925,3,TOT,LIV,0,0,3,0,H
347926,4,AST,BHA,0,0,2,2,D
347926,4,BRE,ARS,2,0,2,1,H
347926,4,BUR,MCI,0,2,1,2,A
347926,4,CRY,NEW,0,1,2,1,H
347926,4,EVE,NOT,2,0,2,0,H
347926,4,FUL,LUT,0,1,0,1,A
347926,4,MUN,CHE,0,0,1,1,D
347926,4,SHU,BOU,0,0,2,1,H
347926,4,WHU,LIV,0,0,3,0,H
347926,4,WOL,TOT,0,1,2,1,H
347927,5,BRE,BHA,3,2,4,4,D
347927,5,BUR,BOU,0,1,1,1,D
347927,5,EVE,CRY,0,0,2,1,H
347927,5,FUL,NEW,0,0,0,0,D
347927,5,LIV,ARS,0,0,0,0,D
347927,5,LUT,AST,0,1,1,1,D
347927,5,MUN,MCI,1,1,2,1,H
347927,5,NOT,SHU,0,1,0,2,A
347927,5,TOT,CHE,0,0,0,1,A
347927,5,WHU,WOL,1,0,2,0,H
347928,6,ARS,WOL,2,1,2,2,D
347928,6,BOU,NOT,3,1,6,2,H
347928,6,BUR,MUN,0,1,3,4,A
347928,6,CRY,SHU,1,0,2,0,H
347928,6,EVE,FUL,0,0,1,0,H
347928,6,LIV,BHA,1,0,2,1,H
347928,6,LUT,BRE,1,4,2,5,A
347928,6,NEW,AST,1,0,2,1,H
347928,6,TOT,MCI,0,0,1,1,D
347928,6,WHU,CHE,1,4,1,5,A
347929,7,BOU,MUN,0,1,4,2,H
347929,7,BRE,NEW,0,1,0,1,A
347929,7,CHE,ARS,2,0,2,1,H
347929,7,CRY,NOT,1,0,2,0,H
347929,7,EVE,AST,0,0,0,0,D
347929,7,FUL,SHU,0,0,0,4,A
347929,7,LIV,LUT,1,1,4,3,H
347929,7,TOT,BUR,0,0,3,1,H
347929,7,WHU,MCI,0,0,2,0,H
347929,7,WOL,BHA,0,1,1,2,A
347930,8,BHA,CHE,2,1,2,1,H
347930,8,BRE,EVE,0,1,0,2,A
347930,8,CRY,BOU,0,1,3,2,H
347930,8,FUL,NOT,0,2,2,2,D
347930,8,LIV,NEW,1,3,4,5,A
347930,8,MCI,ARS,1,0,2,2,D
347930,8,SHU,AST,2,3,2,3,A
347930,8,TOT,MUN,1,0,1,1,D
347930,8,WHU,BUR,0,0,1,0,H
347930,8,WOL,LUT,0,0,2,0,H
347931,9,AST,NOT,1,0,1,2,A
347931,9,BRE,SHU,4,0,4,0,H
347931,9,BUR,ARS,0,0,1,3,A
347931,9,CHE,LUT,1,0,3,1,H
347931,9,CRY,FUL,1,0,3,1,H
347931,9,LIV,EVE,0,1,1,1,D
347931,9,MCI,BHA,0,0,0,0,D
347931,9,MUN,WHU,0,1,2,2,D
347931,9,NEW,WOL,1,0,1,0,H
347931,9,TOT,BOU,1,0,3,0,H
347932,10,BRE,NOT,0,0,0,0,D
347932,10,BUR,BHA,1,2,1,2,A
347932,10,CRY,AST,0,1,1,1,D
347932,10,FUL,BOU,0,2,0,6,A
347932,10,LUT,MCI,1,0,3,1,H
347932,10,MUN,ARS,2,0,2,0,H
347932,10,NEW,CHE,1,1,3,1,H
347932,10,SHU,LIV,0,1,0,4,A
347932,10,WHU,TOT,0,0,0,2,A
347932,10,WOL,EVE,1,0,3,0,H
347933,11,ARS,TOT,0,0,2,1,H
347933,11,AST,FUL,2,1,3,1,H
347933,11,BRE,CRY,1,0,3,0,H
347933,11,BUR,LUT,0,1,0,2,A
347933,11,CHE,EVE,1,0,2,1,H
347933,11,LIV,NOT,0,2,5,3,H
347933,11,MUN,BHA,0,2,2,4,A
347933,11,NEW,MCI,1,0,5,2,H
347933,11,SHU,WOL,2,0,2,1,H
347933,11,WHU,BOU,1,1,1,1,D
347934,12,ARS,WHU,2,0,2,0,H
347934,12,AST,BOU,2,0,2,0,H
347934,12,BRE,FUL,1,0,2,0,H
347934,12,CHE,SHU,3,0,3,0,H
347934,12,CRY,LIV,1,0,2,0,H
347934,12,EVE,MCI,1,0,2,1,H
347934,12,MUN,LUT,1,0,1,0,H
347934,12,NEW,BUR,2,0,3,0,H
347934,12,NOT,WOL,1,0,2,1,H
347934,12,TOT,BHA,2,1,4,3,H
347935,13,BOU,ARS,0,0,1,1,D
347935,13,BRE,AST,1,1,3,3,D
347935,13,BUR,EVE,1,0,1,0,H
347935,13,CRY,WOL,1,1,2,1,H
347935,13,FUL,LIV,2,1,2,5,A
347935,13,MCI,SHU,0,0,0,1,A
347935,13,NEW,MUN,1,2,2,2,D
347935,13,NOT,CHE,0,0,1,0,H
347935,13,TOT,LUT,3,2,6,3,H
347935,13,WHU,BHA,1,0,1,1,D
347936,14,ARS,BHA,2,1,3,1,H
347936,14,BRE,BOU,0,0,1,0,H
347936,14,CRY,CHE,0,0,0,1,A
347936,14,EVE,MUN,1,3,2,3,A
347936,14,LIV,AST,0,1,1,2,A
347936,14,LUT,WHU,0,0,0,3,A
347936,14,NEW,TOT,2,2,2,3,A
347936,14,NOT,MCI,1,2,1,2,A
347936,14,SHU,BUR,0,1,2,3,A
347936,14,WOL,FUL,1,0,1,2,A
347937,15,ARS,LUT,1,0,3,0,H
347937,15,BOU,BHA,0,0,1,1,D
347937,15,BUR,NOT,1,0,1,2,A
347937,15,CRY,MCI,2,2,2,4,A
347937,15,FUL,CHE,1,2,2,2,D
347937,15,LIV,BRE,0,1,1,3,A
347937,15,MUN,SHU,1,0,2,1,H
347937,15,NEW,WHU,1,0,2,0,H
347937,15,TOT,EVE,0,0,1,1,D
347937,15,WOL,AST,1,0,1,1,D
347938,16,AST,CHE,1,0,1,1,D
347938,16,BHA,LUT,0,0,0,1,A
347938,16,BOU,LIV,0,1,2,3,A
347938,16,BRE,WOL,1,0,5,0,H
347938,16,BUR,CRY,1,1,2,2,D
347938,16,FUL,MCI,0,0,1,1,D
347938,16,NEW,ARS,1,1,1,1,D
347938,16,NOT,MUN,0,0,2,1,H
347938,16,TOT,SHU,0,1,1,1,D
347938,16,WHU,EVE,0,0,2,0,H
347939,17,BHA,NEW,2,2,4,2,H
347939,17,BRE,CHE,0,2,0,4,A
347939,17,BUR,FUL,1,2,2,2,D
347939,17,CRY,MUN,1,0,2,0,H
347939,17,EVE,ARS,1,1,1,1,D
347939,17,LIV,WOL,3,1,3,1,H
347939,17,LUT,BOU,0,0,0,0,D
347939,17,MCI,AST,0,0,1,0,H
347939,17,SHU,WHU,0,1,2,2,D
347939,17,TOT,NOT,0,1,3,1,H
347940,18,AST,BUR,1,0,2,1,H
347940,18,BHA,EVE,0,0,1,0,H
347940,18,CHE,LIV,2,1,3,1,H
347940,18,LUT,NEW,0,1,1,2,A
347940,18,MCI,BRE,1,0,1,0,H
347940,18,MUN,FUL,2,1,3,1,H
347940,18,NOT,WHU,0,0,0,0,D
347940,18,SHU,ARS,1,0,2,1,H
347940,18,TOT,CRY,0,0,3,2,H
347940,18,WOL,BOU,0,2,0,3,A
347941,19,ARS,NOT,1,2,2,2,D
347941,19,BRE,BUR,0,1,1,2,A
347941,19,CHE,WOL,0,0,0,0,D
347941,19,EVE,LUT,3,0,3,2,H
347941,19,FUL,TOT,1,3,1,3,A
347941,19,LIV,MCI,1,0,3,0,H
347941,19,MUN,AST,1,0,1,0,H
347941,19,NEW,BOU,3,0,5,1,H
347941,19,SHU,BHA,1,0,1,1,D
347941,19,WHU,CRY,0,0,1,2,A
347942,20,AST,TOT,2,0,3,0,H
347942,20,BRE,MUN,0,1,0,1,A
347942,20,BUR,LIV,0,2,0,3,A
347942,20,CHE,BOU,0,1,2,1,H
347942,20,CRY,ARS,0,0,2,0,H
347942,20,EVE,NEW,0,1,2,1,H
347942,20,LUT,SHU,0,0,1,1,D
347942,20,MCI,WOL,3,1,5,2,H
347942,20,NOT,BHA,0,1,2,5,A
347942,20,WHU,FUL,0,0,2,1,H
347943,21,ARS,FUL,1,0,2,0,H
347943,21,BHA,CRY,1,0,4,1,H
347943,21,BRE,TOT,0,0,1,1,D
347943,21,EVE,BOU,1,0,1,0,H
347943,21,LUT,NOT,1,0,1,2,A
347943,21,MCI,CHE,1,1,3,1,H
347943,21,MUN,LIV,0,0,1,2,A
347943,21,SHU,NEW,1,0,1,1,D
347943,21,WHU,AST,1,0,2,2,D
347943,21,WOL,BUR,1,1,1,3,A
347944,22,AST,ARS,5,0,5,0,H
347944,22,BOU,MCI,0,0,2,0,H
347944,22,BUR,CHE,0,1,0,1,A
347944,22,EVE,SHU,0,2,2,2,D
347944,22,FUL,BHA,0,0,1,0,H
347944,22,LIV,TOT,2,0,3,1,H
347944,22,LUT,CRY,0,0,0,1,A
347944,22,NOT,NEW,0,2,0,3,A
347944,22,WHU,BRE,1,2,3,3,D
347944,22,WOL,MUN,1,1,2,2,D
347945,23,ARS,BRE,2,1,3,2,H
347945,23,BHA,AST,1,1,3,1,H
347945,23,BOU,SHU,1,0,1,1,D
347945,23,CHE,MUN,0,1,2,1,H
347945,23,LIV,WHU,0,0,0,0,D
347945,23,LUT,FUL,1,0,2,0,H
347945,23,MCI,BUR,1,0,2,0,H
347945,23,NEW,CRY,1,3,4,3,H
347945,23,NOT,EVE,0,1,2,3,A
347945,23,TOT,WOL,2,1,4,1,H
347946,24,ARS,LIV,1,1,3,1,H
347946,24,AST,LUT,0,0,1,2,A
347946,24,BHA,BRE,0,0,2,1,H
347946,24,BOU,BUR,0,0,0,3,A
347946,24,CHE,TOT,0,1,2,1,H
347946,24,CRY,EVE,0,0,1,0,H
347946,24,MCI,MUN,1,0,2,0,H
347946,24,NEW,FUL,0,0,2,0,H
347946,24,SHU,NOT,1,0,3,0,H
347946,24,WOL,WHU,1,1,2,1,H
347947,25,AST,NEW,0,1,1,1,D
347947,25,BHA,LIV,1,0,2,0,H
347947,25,BRE,LUT,2,0,2,2,D
347947,25,CHE,WHU,0,1,2,2,D
347947,25,FUL,EVE,0,0,0,1,A
347947,25,MCI,TOT,0,0,2,0,H
347947,25,MUN,BUR,1,1,2,1,H
347947,25,NOT,BOU,1,1,2,1,H
347947,25,SHU,CRY,1,0,2,0,H
347947,25,WOL,ARS,1,4,4,5,A
347948,26,ARS,CHE,0,0,1,0,H
347948,26,AST,EVE,0,0,2,0,H
347948,26,BHA,WOL,1,0,2,2,D
347948,26,BUR,TOT,0,1,0,1,A
347948,26,LUT,LIV,1,3,2,3,A
347948,26,MCI,WHU,0,0,2,0,H
347948,26,MUN,BOU,0,0,3,1,H
347948,26,NEW,BRE,1,1,2,2,D
347948,26,NOT,CRY,0,1,0,2,A
347948,26,SHU,FUL,0,1,1,1,D
347949,27,ARS,MCI,0,0,0,1,A
347949,27,AST,SHU,0,0,1,0,H
347949,27,BOU,CRY,3,0,4,1,H
347949,27,BUR,WHU,0,0,0,1,A
347949,27,CHE,BHA,0,1,0,2,A
347949,27,EVE,BRE,1,0,1,1,D
347949,27,LUT,WOL,1,0,2,3,A
347949,27,MUN,TOT,1,1,4,1,H
347949,27,NEW,LIV,3,0,3,1,H
347949,27,NOT,FUL,0,2,3,3,D
347950,28,ARS,BUR,4,0,6,0,H
347950,28,BHA,MCI,1,0,1,2,A
347950,28,BOU,TOT,1,0,2,2,D
347950,28,EVE,LIV,1,1,2,1,H
347950,28,FUL,CRY,0,3,1,3,A
347950,28,LUT,CHE,0,2,0,2,A
347950,28,NOT,AST,0,1,1,3,A
347950,28,SHU,BRE,0,0,0,0,D
347950,28,WHU,MUN,0,0,1,0,H
347950,28,WOL,NEW,1,1,1,2,A
347951,29,ARS,MUN,1,0,1,0,H
347951,29,AST,CRY,0,0,0,0,D
347951,29,BHA,BUR,1,1,1,1,D
347951,29,BOU,FUL,1,0,1,0,H
347951,29,CHE,NEW,1,1,1,1,D
347951,29,EVE,WOL,0,0,1,0,H
347951,29,LIV,SHU,1,1,3,1,H
347951,29,MCI,LUT,1,2,1,2,A
347951,29,NOT,BRE,1,2,3,3,D
347951,29,TOT,WHU,2,1,2,2,D
347952,30,BHA,MUN,1,0,2,0,H
347952,30,BOU,WHU,0,0,1,0,H
347952,30,CRY,BRE,1,0,2,0,H
347952,30,EVE,CHE,0,0,3,0,H
347952,30,FUL,AST,0,2,0,3,A
347952,30,LUT,BUR,0,0,1,1,D
347952,30,MCI,NEW,2,0,5,1,H
347952,30,NOT,LIV,0,3,1,3,A
347952,30,TOT,ARS,2,0,3,1,H
347952,30,WOL,SHU,0,0,1,2,A
347953,31,BHA,TOT,0,0,1,0,H
347953,31,BOU,AST,1,1,3,1,H
347953,31,BUR,NEW,0,1,0,2,A
347953,31,FUL,BRE,0,0,0,1,A
347953,31,LIV,CRY,2,2,3,2,H
347953,31,LUT,MUN,1,2,3,2,H
347953,31,MCI,EVE,0,1,1,1,D
347953,31,SHU,CHE,0,0,0,3,A
347953,31,WHU,ARS,0,0,1,0,H
347953,31,WOL,NOT,0,1,0,1,A
347954,32,ARS,BOU,4,0,4,0,H
347954,32,AST,BRE,1,0,1,0,H
347954,32,BHA,WHU,1,0,1,0,H
347954,32,CHE,NOT,1,0,3,1,H
347954,32,EVE,BUR,0,0,2,1,H
347954,32,LIV,FUL,1,0,1,2,A
347954,32,LUT,TOT,0,1,1,1,D
347954,32,MUN,NEW,1,2,2,2,D
347954,32,SHU,MCI,0,2,0,4,A
347954,32,WOL,CRY,0,1,1,2,A
347955,33,AST,LIV,0,0,2,1,H
347955,33,BHA,ARS,0,0,2,1,H
347955,33,BOU,BRE,0,0,0,3,A
347955,33,BUR,SHU,0,1,0,1,A
347955,33,CHE,CRY,1,1,3,2,H
347955,33,FUL,WOL,0,0,1,1,D
347955,33,MCI,NOT,1,0,3,1,H
347955,33,MUN,EVE,2,0,6,0,H
347955,33,TOT,NEW,0,1,4,2,H
347955,33,WHU,LUT,1,2,2,2,D
347956,34,AST,WOL,0,1,0,1,A
347956,34,BHA,BOU,0,2,3,4,A
347956,34,BRE,LIV,1,0,2,1,H
347956,34,CHE,FUL,1,0,1,1,D
347956,34,EVE,TOT,2,2,3,2,H
347956,34,LUT,ARS,1,0,2,2,D
347956,34,MCI,CRY,2,2,5,2,H
347956,34,NOT,BUR,1,1,3,2,H
347956,34,SHU,MUN,0,0,0,2,A
347956,34,WHU,NEW,0,0,2,3,A
