Match Day ID,Match Day,Home Team,Away Team,Home Team HT Goals,Away Team HT Goals,Home Team Full Time Goals,Away Team Full Time Goals,Result
347957,1,AST,NEW,0,0,0,0,D
347957,1,BHA,BUR,1,1,2,2,D
347957,1,BRE,MUN,2,1,2,1,H
347957,1,CHE,EVE,0,1,2,1,H
347957,1,LUT,BOU,0,0,0,2,A
347957,1,MCI,ARS,1,0,3,0,H
347957,1,NOT,CRY,0,1,1,1,D
347957,1,SHU,FUL,2,0,2,1,H
347957,1,WHU,LIV,2,1,3,2,H
347957,1,WOL,TOT,0,1,1,1,D
347958,2,ARS,MUN,0,1,0,2,A
347958,2,BHA,CRY,0,0,1,2,A
347958,2,BRE,WHU,0,1,0,1,A
347958,2,CHE,AST,0,0,1,2,A
347958,2,FUL,LIV,1,0,1,1,D
347958,2,LUT,SHU,0,1,1,2,A
347958,2,MCI,BUR,0,1,1,1,D
347958,2,NEW,NOT,1,1,1,2,A
347958,2,TOT,BOU,0,1,1,1,D
347958,2,WOL,EVE,1,1,2,1,H
347959,3,ARS,BRE,3,0,3,1,H
347959,3,BHA,NEW,1,0,2,2,D
347959,3,EVE,BOU,1,0,3,0,H
347959,3,LUT,LIV,2,1,3,3,D
347959,3,MCI,CRY,1,0,1,0,H
347959,3,MUN,BUR,1,0,1,0,H
347959,3,NOT,CHE,1,1,1,2,A
347959,3,TOT,SHU,0,0,2,0,H
347959,3,WHU,FUL,1,1,1,3,A
347959,3,WOL,AST,0,0,0,0,D
347960,4,BOU,AST,1,1,2,3,A
347960,4,BUR,ARS,0,0,0,0,D
347960,4,CHE,BHA,0,1,0,1,A
347960,4,EVE,SHU,2,1,3,1,H
347960,4,FUL,BRE,0,1,1,2,A
347960,4,MCI,NEW,0,0,3,0,H
347960,4,MUN,CRY,0,1,1,1,D
347960,4,NOT,WOL,1,1,2,3,A
347960,4,TOT,LIV,0,0,0,1,A
347960,4,WHU,LUT,1,1,2,1,H
347961,5,ARS,CRY,0,0,0,0,D
347961,5,BHA,WOL,1,1,2,2,D
347961,5,BRE,BUR,0,0,1,1,D
347961,5,CHE,MCI,0,0,0,1,A
347961,5,FUL,LUT,1,0,1,0,H
347961,5,LIV,EVE,1,2,1,2,A
347961,5,MUN,NEW,0,1,1,1,D
347961,5,NOT,BOU,1,1,1,1,D
347961,5,SHU,AST,0,2,1,2,A
347961,5,WHU,TOT,2,0,4,0,H
347962,6,ARS,NEW,0,0,3,1,H
347962,6,BOU,BHA,0,0,0,2,A
347962,6,BUR,CRY,0,2,1,2,A
347962,6,EVE,WHU,0,0,2,2,D
347962,6,FUL,TOT,1,1,2,3,A
347962,6,LIV,AST,2,2,2,3,A
347962,6,LUT,BRE,0,1,0,1,A
347962,6,MUN,CHE,2,0,3,0,H
347962,6,SHU,NOT,0,1,1,2,A
347962,6,WOL,MCI,1,1,2,3,A
347963,7,ARS,CHE,0,0,0,0,D
347963,7,BRE,CRY,0,0,1,1,D
347963,7,EVE,FUL,1,0,1,2,A
347963,7,LIV,NOT,2,1,5,1,H
347963,7,LUT,TOT,1,1,2,1,H
347963,7,MCI,BOU,0,0,2,0,H
347963,7,NEW,BUR,3,1,4,1,H
347963,7,SHU,BHA,0,2,0,6,A
347963,7,WHU,AST,2,0,2,1,H
347963,7,WOL,MUN,0,0,1,1,D
347964,8,BRE,TOT,1,0,2,2,D
347964,8,CHE,BUR,3,1,5,3,H
347964,8,CRY,NEW,1,0,2,0,H
347964,8,FUL,AST,0,0,0,2,A
347964,8,LIV,BHA,1,2,2,6,A
347964,8,LUT,EVE,0,1,0,2,A
347964,8,MCI,SHU,0,1,0,1,A
347964,8,MUN,BOU,0,0,4,0,H
347964,8,WHU,NOT,2,0,2,0,H
347964,8,WOL,ARS,1,2,2,2,D
347965,9,ARS,BOU,1,3,3,3,D
347965,9,AST,LUT,1,1,2,3,A
347965,9,BRE,NEW,0,1,0,3,A
347965,9,CRY,CHE,0,0,0,1,A
347965,9,EVE,TOT,2,0,4,0,H
347965,9,MCI,LIV,1,1,1,1,D
347965,9,NOT,FUL,0,0,2,1,H
347965,9,SHU,MUN,1,1,1,2,A
347965,9,WHU,BHA,0,1,0,1,A
347965,9,WOL,BUR,2,0,5,1,H
347966,10,ARS,SHU,0,0,3,1,H
347966,10,BOU,BUR,1,0,2,1,H
347966,10,BRE,EVE,1,0,3,0,H
347966,10,CRY,WOL,0,1,0,1,A
347966,10,FUL,BHA,1,0,2,2,D
347966,10,LIV,MUN,1,2,2,3,A
347966,10,LUT,NOT,1,0,4,0,H
347966,10,NEW,CHE,0,0,1,1,D
347966,10,TOT,AST,0,0,0,0,D
347966,10,WHU,MCI,1,1,1,2,A
347967,11,BOU,CRY,0,1,2,1,H
347967,11,BRE,CHE,0,1,2,2,D
347967,11,BUR,SHU,0,0,3,1,H
347967,11,EVE,AST,1,0,1,0,H
347967,11,LIV,ARS,1,0,1,0,H
347967,11,LUT,BHA,1,1,1,1,D
347967,11,MCI,FUL,1,0,1,0,H
347967,11,MUN,WHU,1,0,1,0,H
347967,11,TOT,NOT,1,0,1,1,D
347967,11,WOL,NEW,0,0,0,1,A
347968,12,ARS,WHU,1,1,2,1,H
347968,12,AST,BRE,0,1,0,1,A
347968,12,BHA,TOT,2,0,3,0,H
347968,12,CHE,WOL,0,1,1,1,D
347968,12,CRY,SHU,0,0,0,0,D
347968,12,FUL,MUN,0,1,0,1,A
347968,12,LIV,BUR,2,2,3,3,D
347968,12,LUT,MCI,0,0,1,1,D
347968,12,NEW,BOU,3,1,4,1,H
347968,12,NOT,EVE,0,3,1,4,A
347969,13,ARS,FUL,1,0,1,0,H
347969,13,AST,NOT,0,0,1,1,D
347969,13,BHA,EVE,1,0,3,1,H
347969,13,BRE,WOL,3,0,3,1,H
347969,13,BUR,WHU,0,1,1,1,D
347969,13,CHE,BOU,0,0,0,1,A
347969,13,LIV,CRY,0,1,1,2,A
347969,13,MUN,LUT,1,0,3,1,H
347969,13,NEW,SHU,0,0,2,2,D
347969,13,TOT,MCI,0,1,0,2,A
347970,14,AST,BHA,1,1,2,2,D
347970,14,BOU,WOL,1,0,2,1,H
347970,14,BRE,NOT,2,0,2,1,H
347970,14,BUR,FUL,0,0,0,1,A
347970,14,EVE,MCI,1,2,1,3,A
347970,14,LIV,NEW,1,2,3,3,D
347970,14,LUT,ARS,1,0,2,1,H
347970,14,SHU,CHE,0,3,0,4,A
347970,14,TOT,MUN,1,0,1,1,D
347970,14,WHU,CRY,0,1,0,1,A
347971,15,ARS,TOT,0,1,3,2,H
347971,15,BHA,NOT,1,0,2,1,H
347971,15,BOU,BRE,1,0,2,1,H
347971,15,CHE,LIV,1,0,1,2,A
347971,15,FUL,CRY,1,0,2,3,A
347971,15,LUT,BUR,1,0,1,0,H
347971,15,MCI,AST,0,0,1,0,H
347971,15,MUN,EVE,1,1,2,1,H
347971,15,NEW,WHU,1,0,4,0,H
347971,15,WOL,SHU,1,0,1,1,D
347972,16,ARS,EVE,1,1,2,1,H
347972,16,BOU,SHU,1,0,1,0,H
347972,16,BRE,BHA,1,1,1,1,D
347972,16,BUR,TOT,2,0,2,1,H
347972,16,FUL,NEW,0,0,0,0,D
347972,16,LUT,CRY,0,1,1,2,A
347972,16,MCI,NOT,0,0,0,4,A
347972,16,MUN,AST,0,0,0,0,D
347972,16,WHU,CHE,1,0,1,0,H
347972,16,WOL,LIV,0,1,0,1,A
347973,17,AST,ARS,1,2,2,3,A
347973,17,BRE,SHU,0,0,1,0,H
347973,17,BUR,EVE,1,1,1,1,D
347973,17,CRY,TOT,0,0,0,1,A
347973,17,FUL,CHE,0,0,0,0,D
347973,17,LIV,BOU,2,0,5,0,H
347973,17,MCI,BHA,2,0,3,2,H
347973,17,MUN,NOT,1,1,2,1,H
347973,17,NEW,LUT,0,1,3,1,H
347973,17,WOL,WHU,0,0,0,2,A
347974,18,ARS,NOT,2,0,3,0,H
347974,18,BOU,WHU,0,0,0,0,D
347974,18,BUR,AST,0,0,0,1,A
347974,18,CHE,LUT,1,0,3,2,H
347974,18,CRY,EVE,1,0,2,2,D
347974,18,LIV,SHU,0,0,1,3,A
347974,18,MCI,BRE,3,0,3,1,H
347974,18,MUN,BHA,0,0,3,0,H
347974,18,TOT,NEW,1,0,3,0,H
347974,18,WOL,FUL,0,1,2,1,H
347975,19,BHA,ARS,3,1,3,2,H
347975,19,BRE,LIV,0,1,3,2,H
347975,19,BUR,NOT,0,1,0,1,A
347975,19,CHE,TOT,0,0,2,1,H
347975,19,CRY,AST,0,0,0,0,D
347975,19,FUL,BOU,0,0,0,0,D
347975,19,LUT,WOL,0,0,0,2,A
347975,19,MCI,MUN,0,0,3,0,H
347975,19,NEW,EVE,1,2,2,2,D
347975,19,SHU,WHU,0,0,0,1,A
347976,20,ARS,MCI,2,0,4,0,H
347976,20,BOU,LUT,1,1,2,2,D
347976,20,BUR,BHA,0,1,0,1,A
347976,20,CRY,NOT,1,0,1,0,H
347976,20,EVE,CHE,0,0,0,1,A
347976,20,FUL,SHU,0,0,1,0,H
347976,20,LIV,WHU,2,0,2,0,H
347976,20,MUN,BRE,2,0,4,0,H
347976,20,NEW,AST,0,0,1,1,D
347976,20,TOT,WOL,1,2,2,3,A
347977,21,AST,CHE,0,2,1,3,A
347977,21,BOU,TOT,2,0,2,2,D
347977,21,BUR,MCI,1,0,2,4,A
347977,21,CRY,BHA,0,1,0,1,A
347977,21,EVE,WOL,1,0,2,1,H
347977,21,LIV,FUL,1,0,3,2,H
347977,21,MUN,ARS,0,0,3,1,H
347977,21,NOT,NEW,0,1,1,2,A
347977,21,SHU,LUT,0,0,0,4,A
347977,21,WHU,BRE,2,0,4,0,H
347978,22,AST,WOL,1,0,2,1,H
347978,22,BOU,EVE,0,1,1,1,D
347978,22,BRE,ARS,1,0,1,0,H
347978,22,BUR,MUN,0,0,0,0,D
347978,22,CHE,NOT,2,0,3,1,H
347978,22,CRY,MCI,0,0,0,0,D
347978,22,FUL,WHU,1,1,2,1,H
347978,22,LIV,LUT,1,1,1,1,D
347978,22,NEW,BHA,1,3,2,4,A
347978,22,SHU,TOT,1,2,3,3,D
347979,23,ARS,BUR,1,0,1,1,D
347979,23,AST,BOU,1,0,1,1,D
347979,23,BHA,CHE,1,1,1,1,D
347979,23,BRE,FUL,1,0,4,2,H
347979,23,CRY,MUN,1,1,1,1,D
347979,23,LIV,TOT,0,1,1,1,D
347979,23,LUT,WHU,1,1,3,1,H
347979,23,NEW,MCI,0,1,1,1,D
347979,23,SHU,EVE,0,0,1,0,H
347979,23,WOL,NOT,0,0,2,1,H
347980,24,AST,SHU,2,0,3,0,H
347980,24,BOU,NOT,1,0,2,3,A
347980,24,BUR,BRE,0,1,0,1,A
347980,24,CRY,ARS,2,0,4,1,H
347980,24,EVE,LIV,0,0,1,0,H
347980,24,LUT,FUL,0,3,2,4,A
347980,24,MCI,CHE,1,0,3,0,H
347980,24,NEW,MUN,0,1,0,4,A
347980,24,TOT,WHU,2,0,2,2,D
347980,24,WOL,BHA,1,1,1,3,A
347981,25,AST,LIV,0,2,1,3,A
347981,25,BHA,BOU,2,0,3,2,H
347981,25,BRE,LUT,1,3,1,4,A
347981,25,CHE,MUN,2,1,3,2,H
347981,25,CRY,BUR,1,0,2,0,H
347981,25,MCI,WOL,0,0,1,0,H
347981,25,NEW,ARS,1,0,1,2,A
347981,25,NOT,SHU,2,0,5,1,H
347981,25,TOT,FUL,0,0,0,1,A
347981,25,WHU,EVE,1,1,2,2,D
347982,26,AST,WHU,0,1,1,2,A
347982,26,BHA,SHU,0,0,2,0,H
347982,26,BOU,MCI,0,0,0,1,A
347982,26,BUR,NEW,1,1,1,1,D
347982,26,CHE,ARS,0,2,1,3,A
347982,26,CRY,BRE,0,2,0,4,A
347982,26,FUL,EVE,1,2,1,2,A
347982,26,MUN,WOL,1,0,1,3,A
347982,26,NOT,LIV,0,2,1,3,A
347982,26,TOT,LUT,0,0,0,0,D
347983,27,ARS,WOL,0,1,2,1,H
347983,27,AST,FUL,0,0,0,0,D
347983,27,BHA,LIV,3,1,3,1,H
347983,27,BOU,MUN,0,0,0,1,A
347983,27,BUR,CHE,0,3,0,3,A
347983,27,EVE,LUT,0,0,1,1,D
347983,27,NEW,CRY,2,1,4,3,H
347983,27,NOT,WHU,0,0,0,1,A
347983,27,SHU,MCI,0,1,1,2,A
347983,27,TOT,BRE,1,1,1,1,D
347984,28,BHA,WHU,1,0,2,1,H
347984,28,BOU,ARS,0,1,0,2,A
347984,28,BUR,WOL,0,0,0,1,A
347984,28,CHE,CRY,4,0,4,0,H
347984,28,FUL,NOT,0,0,0,0,D
347984,28,LIV,MCI,0,2,1,2,A
347984,28,LUT,AST,0,0,0,3,A
347984,28,MUN,SHU,2,0,3,0,H
347984,28,NEW,BRE,1,0,1,1,D
347984,28,TOT,EVE,1,1,1,2,A
347985,29,AST,TOT,0,0,0,0,D
347985,29,BHA,FUL,1,0,1,1,D
347985,29,BUR,BOU,0,1,2,3,A
347985,29,CHE,NEW,1,1,3,2,H
347985,29,EVE,BRE,3,1,3,2,H
347985,29,MCI,WHU,1,1,2,1,H
347985,29,MUN,LIV,0,0,0,0,D
347985,29,NOT,LUT,2,0,2,0,H
347985,29,SHU,ARS,1,1,2,3,A
347985,29,WOL,CRY,0,0,1,0,H
347986,30,ARS,LIV,1,2,2,4,A
347986,30,AST,EVE,0,0,1,0,H
347986,30,BHA,LUT,1,0,1,1,D
347986,30,CHE,BRE,1,1,4,1,H
347986,30,CRY,BOU,0,0,1,1,D
347986,30,FUL,MCI,2,3,4,3,H
347986,30,NEW,WOL,1,0,1,1,D
347986,30,NOT,TOT,0,1,2,1,H
347986,30,SHU,BUR,1,1,4,1,H
347986,30,WHU,MUN,0,1,0,1,A
347987,31,BOU,NEW,1,0,1,0,H
347987,31,BRE,AST,1,2,1,3,A
347987,31,BUR,LIV,0,0,1,0,H
347987,31,EVE,NOT,0,0,1,1,D
347987,31,MCI,LUT,0,1,1,3,A
347987,31,MUN,FUL,3,0,4,0,H
347987,31,SHU,CRY,0,1,0,1,A
347987,31,TOT,BHA,0,1,0,3,A
347987,31,WHU,ARS,1,0,1,2,A
347987,31,WOL,CHE,1,0,3,1,H
347988,32,BOU,CHE,0,0,0,1,A
347988,32,CRY,LIV,1,0,1,0,H
347988,32,EVE,BHA,0,1,1,1,D
347988,32,FUL,ARS,1,2,3,3,D
347988,32,LUT,MUN,0,1,3,1,H
347988,32,MCI,TOT,0,2,1,3,A
347988,32,NOT,AST,0,2,0,3,A
347988,32,SHU,NEW,0,2,0,4,A
347988,32,WHU,BUR,2,0,2,1,H
347988,32,WOL,BRE,0,0,0,1,A
347989,33,ARS,LUT,1,0,3,0,H
347989,33,BHA,AST,0,0,2,0,H
347989,33,CHE,SHU,0,1,2,1,H
347989,33,CRY,WHU,0,1,0,3,A
347989,33,FUL,BUR,1,0,2,1,H
347989,33,MCI,EVE,2,0,3,0,H
347989,33,MUN,TOT,1,1,2,2,D
347989,33,NEW,LIV,1,0,3,1,H
347989,33,NOT,BRE,1,0,1,2,A
347989,33,WOL,BOU,2,1,2,1,H
347990,34,AST,MCI,1,3,2,4,A
347990,34,BRE,BOU,1,0,1,0,H
347990,34,BUR,LUT,0,0,1,1,D
347990,34,CRY,FUL,0,1,1,1,D
347990,34,EVE,MUN,0,0,0,1,A
347990,34,LIV,CHE,1,1,4,2,H
347990,34,NOT,BHA,3,1,3,3,D
347990,34,SHU,WOL,3,1,3,2,H
347990,34,TOT,ARS,1,0,4,1,H
347990,34,WHU,NEW,1,1,1,2,A
